1 10 20
100 200 125
201 210 89
900 1000 174
731574 545149 509
65321 725862 509
526104 757863 509
632946 25394 509
662363 48211 509
87007 664599 509
601155 361104 470
796822 343415 509
780795 684788 504
123452 97538 354
201414 558748 470
569607 663413 509
20263 954201 525
163508 747627 509
32334 294167 443
204181 937137 525
121543 793391 509
808428 229392 509
878428 460147 525
236558 426933 449
164025 383192 443
323258 557664 470
312253 743852 509
579933 419180 470
915468 590947 525
428293 705405 509
63106 927276 525
127065 702755 509
933144 186909 525
437304 382210 449
107670 258164 443
461256 386758 449
705171 796459 468
647002 476394 509
482627 244981 449
442435 950962 525
876591 484488 525
65578 643584 509
529995 168911 470
124677 886539 525
511845 704420 509
653437 80649 509
19132 472363 449
765591 884739 525
124964 769045 509
190487 234847 443
630578 990301 525
553150 98447 470
645010 55343 509
273582 569391 470
593126 76110 470
364586 915911 525
788258 733417 468
605175 586888 403
131119 811678 509
289764 848397 525
892479 470748 525
983081 76486 525
46865 94733 351
735060 446473 509
852031 515982 525
736617 669716 504
318008 479367 449
596653 550109 434
324454 553617 470
998850 598532 525
729803 939209 525
677114 914846 525
667344 779004 504
619916 277533 470
205018 41316 383
214195 62948 383
84119 228210 386
326578 369759 441
625246 313727 470
204271 84438 383
997164 659674 525
54592 607844 470
790184 271113 509
496729 410097 444
786010 168553 509
967683 124162 525
562915 172096 470
105133 62556 351
714899 142198 509
716862 194194 509
155318 141001 375
253101 250256 332
773350 364522 509
690855 744 509
708365 823255 468
550974 768261 509
258370 81180 443
479397 590480 470
975742 323592 525
402872 183190 443
218171 804387 509
244987 946544 525
997727 262508 525
23356 461812 449
542490 941105 525
123908 764761 509
321808 327261 384
648148 769403 504
17405 27266 308
524592 877635 525
21416 779338 509
574403 206603 470
974884 719057 525
564729 999992 525
244722 455292 449
525152 898901 525
626773 45924 509
890763 135685 525
495567 637002 509
446924 936309 525
958208 860984 507
139629 205527 383
797881 204367 509
290043 455610 449
280412 193779 443
941392 369620 525
115875 445192 449
786475 34820 509
750808 306724 509
444646 924999 525
56536 419561 449
16948 556713 470
584296 207287 470
1256 813872 509
941449 646556 525
463374 262956 449
742139 108415 509
678306 410832 509
35696 123646 354
767367 881749 525
593582 366646 470
132519 303045 443
927151 470589 525
421792 289333 449
330288 59284 443
483366 925705 525
232197 275982 407
507619 827688 509
172975 152301 383
903487 105420 525
619048 492936 470
87391 102376 341
799183 467121 509
289473 381511 441
